%YAML 1.1
%TAG !u! tag:unity3d.com,2011:
--- !u!1001 &903242931367237916
PrefabInstance:
  m_ObjectHideFlags: 0
  serializedVersion: 2
  m_Modification:
    m_TransformParent: {fileID: 343439753314544740}
    m_Modifications:
    - target: {fileID: 100000, guid: d073530e74db0824091d520078fd612e, type: 3}
      propertyPath: m_Name
      value: wheelchair
      objectReference: {fileID: 0}
    - target: {fileID: 400000, guid: d073530e74db0824091d520078fd612e, type: 3}
      propertyPath: m_LocalPosition.x
      value: -0.03700018
      objectReference: {fileID: 0}
    - target: {fileID: 400000, guid: d073530e74db0824091d520078fd612e, type: 3}
      propertyPath: m_LocalPosition.y
      value: 0.000639518
      objectReference: {fileID: 0}
    - target: {fileID: 400000, guid: d073530e74db0824091d520078fd612e, type: 3}
      propertyPath: m_LocalPosition.z
      value: 0.0004068017
      objectReference: {fileID: 0}
    - target: {fileID: 400000, guid: d073530e74db0824091d520078fd612e, type: 3}
      propertyPath: m_LocalRotation.x
      value: -0
      objectReference: {fileID: 0}
    - target: {fileID: 400000, guid: d073530e74db0824091d520078fd612e, type: 3}
      propertyPath: m_LocalRotation.y
      value: -0.70710677
      objectReference: {fileID: 0}
    - target: {fileID: 400000, guid: d073530e74db0824091d520078fd612e, type: 3}
      propertyPath: m_LocalRotation.z
      value: -0
      objectReference: {fileID: 0}
    - target: {fileID: 400000, guid: d073530e74db0824091d520078fd612e, type: 3}
      propertyPath: m_LocalRotation.w
      value: 0.7071068
      objectReference: {fileID: 0}
    - target: {fileID: 400000, guid: d073530e74db0824091d520078fd612e, type: 3}
      propertyPath: m_RootOrder
      value: 0
      objectReference: {fileID: 0}
    - target: {fileID: 400000, guid: d073530e74db0824091d520078fd612e, type: 3}
      propertyPath: m_LocalEulerAnglesHint.x
      value: 0
      objectReference: {fileID: 0}
    - target: {fileID: 400000, guid: d073530e74db0824091d520078fd612e, type: 3}
      propertyPath: m_LocalEulerAnglesHint.y
      value: -90
      objectReference: {fileID: 0}
    - target: {fileID: 400000, guid: d073530e74db0824091d520078fd612e, type: 3}
      propertyPath: m_LocalEulerAnglesHint.z
      value: 0
      objectReference: {fileID: 0}
    - target: {fileID: 400000, guid: d073530e74db0824091d520078fd612e, type: 3}
      propertyPath: m_LocalScale.x
      value: 2.7743526
      objectReference: {fileID: 0}
    - target: {fileID: 400000, guid: d073530e74db0824091d520078fd612e, type: 3}
      propertyPath: m_LocalScale.y
      value: 2.1137924
      objectReference: {fileID: 0}
    - target: {fileID: 400000, guid: d073530e74db0824091d520078fd612e, type: 3}
      propertyPath: m_LocalScale.z
      value: 1.9816804
      objectReference: {fileID: 0}
    - target: {fileID: 2300000, guid: d073530e74db0824091d520078fd612e, type: 3}
      propertyPath: m_Materials.Array.data[3]
      value: 
      objectReference: {fileID: 2100000, guid: 2500097e6a4cb3343a259c0386ace660, type: 2}
    - target: {fileID: 2300000, guid: d073530e74db0824091d520078fd612e, type: 3}
      propertyPath: m_Materials.Array.data[2]
      value: 
      objectReference: {fileID: 2100004, guid: d073530e74db0824091d520078fd612e, type: 3}
    - target: {fileID: 2300000, guid: d073530e74db0824091d520078fd612e, type: 3}
      propertyPath: m_Materials.Array.data[1]
      value: 
      objectReference: {fileID: 2100000, guid: 2500097e6a4cb3343a259c0386ace660, type: 2}
    - target: {fileID: 2300000, guid: d073530e74db0824091d520078fd612e, type: 3}
      propertyPath: m_Materials.Array.data[0]
      value: 
      objectReference: {fileID: 2100000, guid: a25aadc8a8220c64d9a9a27517c7e895, type: 2}
    m_RemovedComponents: []
  m_SourcePrefab: {fileID: 100100000, guid: d073530e74db0824091d520078fd612e, type: 3}
--- !u!1001 &5783325783919495325
PrefabInstance:
  m_ObjectHideFlags: 0
  serializedVersion: 2
  m_Modification:
    m_TransformParent: {fileID: 0}
    m_Modifications:
    - target: {fileID: 7086691278318694571, guid: 4ea4099752fc69f4aa3deee68640a246,
        type: 3}
      propertyPath: size.x
      value: 1
      objectReference: {fileID: 0}
    - target: {fileID: 7086691278318694574, guid: 4ea4099752fc69f4aa3deee68640a246,
        type: 3}
      propertyPath: m_LocalPosition.x
      value: -4.5
      objectReference: {fileID: 0}
    - target: {fileID: 7086691278318694574, guid: 4ea4099752fc69f4aa3deee68640a246,
        type: 3}
      propertyPath: m_LocalPosition.y
      value: 0
      objectReference: {fileID: 0}
    - target: {fileID: 7086691278318694574, guid: 4ea4099752fc69f4aa3deee68640a246,
        type: 3}
      propertyPath: m_LocalPosition.z
      value: 0.46
      objectReference: {fileID: 0}
    - target: {fileID: 7086691278318694574, guid: 4ea4099752fc69f4aa3deee68640a246,
        type: 3}
      propertyPath: m_LocalRotation.x
      value: -0
      objectReference: {fileID: 0}
    - target: {fileID: 7086691278318694574, guid: 4ea4099752fc69f4aa3deee68640a246,
        type: 3}
      propertyPath: m_LocalRotation.y
      value: -0
      objectReference: {fileID: 0}
    - target: {fileID: 7086691278318694574, guid: 4ea4099752fc69f4aa3deee68640a246,
        type: 3}
      propertyPath: m_LocalRotation.z
      value: -0
      objectReference: {fileID: 0}
    - target: {fileID: 7086691278318694574, guid: 4ea4099752fc69f4aa3deee68640a246,
        type: 3}
      propertyPath: m_LocalRotation.w
      value: 1
      objectReference: {fileID: 0}
    - target: {fileID: 7086691278318694574, guid: 4ea4099752fc69f4aa3deee68640a246,
        type: 3}
      propertyPath: m_RootOrder
      value: 0
      objectReference: {fileID: 0}
    - target: {fileID: 7086691278318694574, guid: 4ea4099752fc69f4aa3deee68640a246,
        type: 3}
      propertyPath: m_LocalEulerAnglesHint.x
      value: 0
      objectReference: {fileID: 0}
    - target: {fileID: 7086691278318694574, guid: 4ea4099752fc69f4aa3deee68640a246,
        type: 3}
      propertyPath: m_LocalEulerAnglesHint.y
      value: 0
      objectReference: {fileID: 0}
    - target: {fileID: 7086691278318694574, guid: 4ea4099752fc69f4aa3deee68640a246,
        type: 3}
      propertyPath: m_LocalEulerAnglesHint.z
      value: 0
      objectReference: {fileID: 0}
    - target: {fileID: 7086691278318694575, guid: 4ea4099752fc69f4aa3deee68640a246,
        type: 3}
      propertyPath: m_Name
      value: FurnitureObject_1x1_Wheelchair
      objectReference: {fileID: 0}
    m_RemovedComponents: []
  m_SourcePrefab: {fileID: 100100000, guid: 4ea4099752fc69f4aa3deee68640a246, type: 3}
--- !u!4 &343439753314544740 stripped
Transform:
  m_CorrespondingSourceObject: {fileID: 6090736460438086905, guid: 4ea4099752fc69f4aa3deee68640a246,
    type: 3}
  m_PrefabInstance: {fileID: 5783325783919495325}
  m_PrefabAsset: {fileID: 0}
