%YAML 1.1
%TAG !u! tag:unity3d.com,2011:
--- !u!1001 &3393208689380705918
PrefabInstance:
  m_ObjectHideFlags: 0
  serializedVersion: 2
  m_Modification:
    m_TransformParent: {fileID: 0}
    m_Modifications:
    - target: {fileID: 7086691278318694572, guid: 4ea4099752fc69f4aa3deee68640a246,
        type: 3}
      propertyPath: m_Size.y
      value: 1
      objectReference: {fileID: 0}
    - target: {fileID: 7086691278318694572, guid: 4ea4099752fc69f4aa3deee68640a246,
        type: 3}
      propertyPath: m_Center.y
      value: 0.5
      objectReference: {fileID: 0}
    - target: {fileID: 7086691278318694574, guid: 4ea4099752fc69f4aa3deee68640a246,
        type: 3}
      propertyPath: m_LocalPosition.x
      value: -1.5
      objectReference: {fileID: 0}
    - target: {fileID: 7086691278318694574, guid: 4ea4099752fc69f4aa3deee68640a246,
        type: 3}
      propertyPath: m_LocalPosition.y
      value: 0
      objectReference: {fileID: 0}
    - target: {fileID: 7086691278318694574, guid: 4ea4099752fc69f4aa3deee68640a246,
        type: 3}
      propertyPath: m_LocalPosition.z
      value: 0.5
      objectReference: {fileID: 0}
    - target: {fileID: 7086691278318694574, guid: 4ea4099752fc69f4aa3deee68640a246,
        type: 3}
      propertyPath: m_LocalRotation.x
      value: -0
      objectReference: {fileID: 0}
    - target: {fileID: 7086691278318694574, guid: 4ea4099752fc69f4aa3deee68640a246,
        type: 3}
      propertyPath: m_LocalRotation.y
      value: -0
      objectReference: {fileID: 0}
    - target: {fileID: 7086691278318694574, guid: 4ea4099752fc69f4aa3deee68640a246,
        type: 3}
      propertyPath: m_LocalRotation.z
      value: -0
      objectReference: {fileID: 0}
    - target: {fileID: 7086691278318694574, guid: 4ea4099752fc69f4aa3deee68640a246,
        type: 3}
      propertyPath: m_LocalRotation.w
      value: 1
      objectReference: {fileID: 0}
    - target: {fileID: 7086691278318694574, guid: 4ea4099752fc69f4aa3deee68640a246,
        type: 3}
      propertyPath: m_RootOrder
      value: 0
      objectReference: {fileID: 0}
    - target: {fileID: 7086691278318694574, guid: 4ea4099752fc69f4aa3deee68640a246,
        type: 3}
      propertyPath: m_LocalEulerAnglesHint.x
      value: 0
      objectReference: {fileID: 0}
    - target: {fileID: 7086691278318694574, guid: 4ea4099752fc69f4aa3deee68640a246,
        type: 3}
      propertyPath: m_LocalEulerAnglesHint.y
      value: 0
      objectReference: {fileID: 0}
    - target: {fileID: 7086691278318694574, guid: 4ea4099752fc69f4aa3deee68640a246,
        type: 3}
      propertyPath: m_LocalEulerAnglesHint.z
      value: 0
      objectReference: {fileID: 0}
    - target: {fileID: 7086691278318694575, guid: 4ea4099752fc69f4aa3deee68640a246,
        type: 3}
      propertyPath: m_Name
      value: FurnitureObject_2x1_Bench
      objectReference: {fileID: 0}
    m_RemovedComponents: []
  m_SourcePrefab: {fileID: 100100000, guid: 4ea4099752fc69f4aa3deee68640a246, type: 3}
--- !u!4 &8904106679531004551 stripped
Transform:
  m_CorrespondingSourceObject: {fileID: 6090736460438086905, guid: 4ea4099752fc69f4aa3deee68640a246,
    type: 3}
  m_PrefabInstance: {fileID: 3393208689380705918}
  m_PrefabAsset: {fileID: 0}
--- !u!1001 &5978631950033857384
PrefabInstance:
  m_ObjectHideFlags: 0
  serializedVersion: 2
  m_Modification:
    m_TransformParent: {fileID: 8904106679531004551}
    m_Modifications:
    - target: {fileID: 100000, guid: 336933996dc8079429db2e1a470ab9d8, type: 3}
      propertyPath: m_Name
      value: bench
      objectReference: {fileID: 0}
    - target: {fileID: 400000, guid: 336933996dc8079429db2e1a470ab9d8, type: 3}
      propertyPath: m_LocalPosition.x
      value: 0.5
      objectReference: {fileID: 0}
    - target: {fileID: 400000, guid: 336933996dc8079429db2e1a470ab9d8, type: 3}
      propertyPath: m_LocalPosition.y
      value: 0.346
      objectReference: {fileID: 0}
    - target: {fileID: 400000, guid: 336933996dc8079429db2e1a470ab9d8, type: 3}
      propertyPath: m_LocalPosition.z
      value: -0.04699993
      objectReference: {fileID: 0}
    - target: {fileID: 400000, guid: 336933996dc8079429db2e1a470ab9d8, type: 3}
      propertyPath: m_LocalRotation.x
      value: -0
      objectReference: {fileID: 0}
    - target: {fileID: 400000, guid: 336933996dc8079429db2e1a470ab9d8, type: 3}
      propertyPath: m_LocalRotation.y
      value: -1
      objectReference: {fileID: 0}
    - target: {fileID: 400000, guid: 336933996dc8079429db2e1a470ab9d8, type: 3}
      propertyPath: m_LocalRotation.z
      value: -0
      objectReference: {fileID: 0}
    - target: {fileID: 400000, guid: 336933996dc8079429db2e1a470ab9d8, type: 3}
      propertyPath: m_LocalRotation.w
      value: -0.00000035762784
      objectReference: {fileID: 0}
    - target: {fileID: 400000, guid: 336933996dc8079429db2e1a470ab9d8, type: 3}
      propertyPath: m_RootOrder
      value: 0
      objectReference: {fileID: 0}
    - target: {fileID: 400000, guid: 336933996dc8079429db2e1a470ab9d8, type: 3}
      propertyPath: m_LocalEulerAnglesHint.x
      value: 0
      objectReference: {fileID: 0}
    - target: {fileID: 400000, guid: 336933996dc8079429db2e1a470ab9d8, type: 3}
      propertyPath: m_LocalEulerAnglesHint.y
      value: -180
      objectReference: {fileID: 0}
    - target: {fileID: 400000, guid: 336933996dc8079429db2e1a470ab9d8, type: 3}
      propertyPath: m_LocalEulerAnglesHint.z
      value: 0
      objectReference: {fileID: 0}
    - target: {fileID: 400000, guid: 336933996dc8079429db2e1a470ab9d8, type: 3}
      propertyPath: m_LocalScale.x
      value: 2.1544
      objectReference: {fileID: 0}
    - target: {fileID: 400000, guid: 336933996dc8079429db2e1a470ab9d8, type: 3}
      propertyPath: m_LocalScale.y
      value: 2.1544
      objectReference: {fileID: 0}
    - target: {fileID: 400000, guid: 336933996dc8079429db2e1a470ab9d8, type: 3}
      propertyPath: m_LocalScale.z
      value: 4.063064
      objectReference: {fileID: 0}
    - target: {fileID: 2300000, guid: 336933996dc8079429db2e1a470ab9d8, type: 3}
      propertyPath: m_Materials.Array.data[3]
      value: 
      objectReference: {fileID: 2100000, guid: e8df725215d881a4c88d1651f033841c, type: 2}
    - target: {fileID: 2300000, guid: 336933996dc8079429db2e1a470ab9d8, type: 3}
      propertyPath: m_Materials.Array.data[1]
      value: 
      objectReference: {fileID: 2100002, guid: 336933996dc8079429db2e1a470ab9d8, type: 3}
    - target: {fileID: 2300000, guid: 336933996dc8079429db2e1a470ab9d8, type: 3}
      propertyPath: m_Materials.Array.data[0]
      value: 
      objectReference: {fileID: 2100000, guid: 2500097e6a4cb3343a259c0386ace660, type: 2}
    m_RemovedComponents: []
  m_SourcePrefab: {fileID: 100100000, guid: 336933996dc8079429db2e1a470ab9d8, type: 3}
