%YAML 1.1
%TAG !u! tag:unity3d.com,2011:
--- !u!1001 &5893245939314913562
PrefabInstance:
  m_ObjectHideFlags: 0
  serializedVersion: 2
  m_Modification:
    m_TransformParent: {fileID: 0}
    m_Modifications:
    - target: {fileID: 7086691278318694571, guid: 4ea4099752fc69f4aa3deee68640a246,
        type: 3}
      propertyPath: size.x
      value: 1
      objectReference: {fileID: 0}
    - target: {fileID: 7086691278318694574, guid: 4ea4099752fc69f4aa3deee68640a246,
        type: 3}
      propertyPath: m_LocalPosition.x
      value: -4.2954016
      objectReference: {fileID: 0}
    - target: {fileID: 7086691278318694574, guid: 4ea4099752fc69f4aa3deee68640a246,
        type: 3}
      propertyPath: m_LocalPosition.y
      value: 1.6399994
      objectReference: {fileID: 0}
    - target: {fileID: 7086691278318694574, guid: 4ea4099752fc69f4aa3deee68640a246,
        type: 3}
      propertyPath: m_LocalPosition.z
      value: 1.2686584
      objectReference: {fileID: 0}
    - target: {fileID: 7086691278318694574, guid: 4ea4099752fc69f4aa3deee68640a246,
        type: 3}
      propertyPath: m_LocalRotation.x
      value: -0
      objectReference: {fileID: 0}
    - target: {fileID: 7086691278318694574, guid: 4ea4099752fc69f4aa3deee68640a246,
        type: 3}
      propertyPath: m_LocalRotation.y
      value: -0
      objectReference: {fileID: 0}
    - target: {fileID: 7086691278318694574, guid: 4ea4099752fc69f4aa3deee68640a246,
        type: 3}
      propertyPath: m_LocalRotation.z
      value: -0
      objectReference: {fileID: 0}
    - target: {fileID: 7086691278318694574, guid: 4ea4099752fc69f4aa3deee68640a246,
        type: 3}
      propertyPath: m_LocalRotation.w
      value: 1
      objectReference: {fileID: 0}
    - target: {fileID: 7086691278318694574, guid: 4ea4099752fc69f4aa3deee68640a246,
        type: 3}
      propertyPath: m_RootOrder
      value: 0
      objectReference: {fileID: 0}
    - target: {fileID: 7086691278318694574, guid: 4ea4099752fc69f4aa3deee68640a246,
        type: 3}
      propertyPath: m_LocalEulerAnglesHint.x
      value: 0
      objectReference: {fileID: 0}
    - target: {fileID: 7086691278318694574, guid: 4ea4099752fc69f4aa3deee68640a246,
        type: 3}
      propertyPath: m_LocalEulerAnglesHint.y
      value: 0
      objectReference: {fileID: 0}
    - target: {fileID: 7086691278318694574, guid: 4ea4099752fc69f4aa3deee68640a246,
        type: 3}
      propertyPath: m_LocalEulerAnglesHint.z
      value: 0
      objectReference: {fileID: 0}
    - target: {fileID: 7086691278318694575, guid: 4ea4099752fc69f4aa3deee68640a246,
        type: 3}
      propertyPath: m_Name
      value: FurnitureObject_1x1_Cabinet
      objectReference: {fileID: 0}
    m_RemovedComponents: []
  m_SourcePrefab: {fileID: 100100000, guid: 4ea4099752fc69f4aa3deee68640a246, type: 3}
--- !u!4 &382708657958049251 stripped
Transform:
  m_CorrespondingSourceObject: {fileID: 6090736460438086905, guid: 4ea4099752fc69f4aa3deee68640a246,
    type: 3}
  m_PrefabInstance: {fileID: 5893245939314913562}
  m_PrefabAsset: {fileID: 0}
--- !u!1001 &8145544360156378647
PrefabInstance:
  m_ObjectHideFlags: 0
  serializedVersion: 2
  m_Modification:
    m_TransformParent: {fileID: 382708657958049251}
    m_Modifications:
    - target: {fileID: 100000, guid: ad2cbb7fb48e060438385ff4d80e8083, type: 3}
      propertyPath: m_Name
      value: pedestal
      objectReference: {fileID: 0}
    - target: {fileID: 400000, guid: ad2cbb7fb48e060438385ff4d80e8083, type: 3}
      propertyPath: m_LocalPosition.x
      value: 0
      objectReference: {fileID: 0}
    - target: {fileID: 400000, guid: ad2cbb7fb48e060438385ff4d80e8083, type: 3}
      propertyPath: m_LocalPosition.y
      value: 0.5
      objectReference: {fileID: 0}
    - target: {fileID: 400000, guid: ad2cbb7fb48e060438385ff4d80e8083, type: 3}
      propertyPath: m_LocalPosition.z
      value: 0
      objectReference: {fileID: 0}
    - target: {fileID: 400000, guid: ad2cbb7fb48e060438385ff4d80e8083, type: 3}
      propertyPath: m_LocalRotation.x
      value: 0
      objectReference: {fileID: 0}
    - target: {fileID: 400000, guid: ad2cbb7fb48e060438385ff4d80e8083, type: 3}
      propertyPath: m_LocalRotation.y
      value: -0.7071068
      objectReference: {fileID: 0}
    - target: {fileID: 400000, guid: ad2cbb7fb48e060438385ff4d80e8083, type: 3}
      propertyPath: m_LocalRotation.z
      value: 0
      objectReference: {fileID: 0}
    - target: {fileID: 400000, guid: ad2cbb7fb48e060438385ff4d80e8083, type: 3}
      propertyPath: m_LocalRotation.w
      value: 0.7071068
      objectReference: {fileID: 0}
    - target: {fileID: 400000, guid: ad2cbb7fb48e060438385ff4d80e8083, type: 3}
      propertyPath: m_RootOrder
      value: 0
      objectReference: {fileID: 0}
    - target: {fileID: 400000, guid: ad2cbb7fb48e060438385ff4d80e8083, type: 3}
      propertyPath: m_LocalEulerAnglesHint.x
      value: 0
      objectReference: {fileID: 0}
    - target: {fileID: 400000, guid: ad2cbb7fb48e060438385ff4d80e8083, type: 3}
      propertyPath: m_LocalEulerAnglesHint.y
      value: -90
      objectReference: {fileID: 0}
    - target: {fileID: 400000, guid: ad2cbb7fb48e060438385ff4d80e8083, type: 3}
      propertyPath: m_LocalEulerAnglesHint.z
      value: 0
      objectReference: {fileID: 0}
    - target: {fileID: 400000, guid: ad2cbb7fb48e060438385ff4d80e8083, type: 3}
      propertyPath: m_LocalScale.x
      value: 5.0666
      objectReference: {fileID: 0}
    - target: {fileID: 400000, guid: ad2cbb7fb48e060438385ff4d80e8083, type: 3}
      propertyPath: m_LocalScale.y
      value: 4.023197
      objectReference: {fileID: 0}
    - target: {fileID: 400000, guid: ad2cbb7fb48e060438385ff4d80e8083, type: 3}
      propertyPath: m_LocalScale.z
      value: 6.0799203
      objectReference: {fileID: 0}
    - target: {fileID: 2300000, guid: ad2cbb7fb48e060438385ff4d80e8083, type: 3}
      propertyPath: m_Materials.Array.data[2]
      value: 
      objectReference: {fileID: 2100000, guid: 2500097e6a4cb3343a259c0386ace660, type: 2}
    - target: {fileID: 2300000, guid: ad2cbb7fb48e060438385ff4d80e8083, type: 3}
      propertyPath: m_Materials.Array.data[1]
      value: 
      objectReference: {fileID: 2100000, guid: b0475e7c3df604444b61024aa0cfc597, type: 2}
    m_RemovedComponents: []
  m_SourcePrefab: {fileID: 100100000, guid: ad2cbb7fb48e060438385ff4d80e8083, type: 3}
