%YAML 1.1
%TAG !u! tag:unity3d.com,2011:
--- !u!21 &2100000
Material:
  serializedVersion: 6
  m_ObjectHideFlags: 0
  m_CorrespondingSourceObject: {fileID: 0}
  m_PrefabInstance: {fileID: 0}
  m_PrefabAsset: {fileID: 0}
  m_Name: Flash
  m_Shader: {fileID: 4800000, guid: f97b2df71cdf93f4796315d14bac2ba6, type: 3}
  m_ShaderKeywords: _ALPHABLEND_ON
  m_LightmapFlags: 0
  m_EnableInstancingVariants: 0
  m_DoubleSidedGI: 0
  m_CustomRenderQueue: -1
  stringTagMap: {}
  disabledShaderPasses: []
  m_SavedProperties:
    serializedVersion: 3
    m_TexEnvs:
    - _BumpMap:
        m_Texture: {fileID: 0}
        m_Scale: {x: 1, y: 1}
        m_Offset: {x: 0, y: 0}
    - _DetailAlbedoMap:
        m_Texture: {fileID: 0}
        m_Scale: {x: 1, y: 1}
        m_Offset: {x: 0, y: 0}
    - _DetailMask:
        m_Texture: {fileID: 0}
        m_Scale: {x: 1, y: 1}
        m_Offset: {x: 0, y: 0}
    - _DetailNormalMap:
        m_Texture: {fileID: 0}
        m_Scale: {x: 1, y: 1}
        m_Offset: {x: 0, y: 0}
    - _DissolveMask:
        m_Texture: {fileID: 0}
        m_Scale: {x: 1, y: 1}
        m_Offset: {x: 0, y: 0}
    - _EmissionMap:
        m_Texture: {fileID: 0}
        m_Scale: {x: 1, y: 1}
        m_Offset: {x: 0, y: 0}
    - _MainTex:
        m_Texture: {fileID: 0}
        m_Scale: {x: 1, y: 1}
        m_Offset: {x: 0, y: 0}
    - _MetallicGlossMap:
        m_Texture: {fileID: 0}
        m_Scale: {x: 1, y: 1}
        m_Offset: {x: 0, y: 0}
    - _OcclusionMap:
        m_Texture: {fileID: 0}
        m_Scale: {x: 1, y: 1}
        m_Offset: {x: 0, y: 0}
    - _ParallaxMap:
        m_Texture: {fileID: 0}
        m_Scale: {x: 1, y: 1}
        m_Offset: {x: 0, y: 0}
    m_Floats:
    - _Anim: 1
    - _BumpScale: 1
    - _CullMode: 1
    - _Cutoff: 0.5
    - _DetailNormalMapScale: 1
    - _Dissolve: 0.5
    - _DissolveWidth: 0.1
    - _DstBlend: 10
    - _GlossMapScale: 1
    - _Glossiness: 0.45
    - _GlossyReflections: 1
    - _Metallic: 0.49
    - _Mode: 2
    - _OcclusionStrength: 1
    - _Parallax: 0.02
    - _Shininess: 0.078125
    - _SmoothnessTextureChannel: 0
    - _SpecularHighlights: 1
    - _SrcBlend: 5
    - _StencilCompare: 4
    - _StencilOpFail: 0
    - _StencilOpFailz: 0
    - _StencilOpPass: 0
    - _StencilVal: 1
    - _UVSec: 0
    - _ZTest: 4
    - _ZWrite: 0
    - __dirty: 0
    m_Colors:
    - _Color: {r: 0, g: 0.50047493, b: 1, a: 0.43137255}
    - _ColorBot: {r: 0, g: 0, b: 0, a: 1}
    - _ColorTop: {r: 1, g: 1, b: 1, a: 1}
    - _Colour: {r: 1, g: 1, b: 1, a: 1}
    - _DissolveColor: {r: 1, g: 1, b: 1, a: 1}
    - _EmissionColor: {r: 0, g: 1, b: 0.08059716, a: 1}
  m_BuildTextureStacks: []
