ID	English	Arabic	Brazilian_Portuguese	Chinese_Simplified	Chinese_Traditional	French	German	Italian	Japanese	Korean	Russian	Spanish	Thai
Confirm_Yes	YES	نعم	SIM	是	是	OUI	JA	SÌ	はい	예	ДА	SI	ใช่
Confirm_No	NO	لا	NÃO	没有	沒有	NON	NEIN	NO	番号	아니	НЕТ	NO	NO
Confirm_Ok	OK	حسنا	Está bem	好	好	D'accord	in Ordnung	ok	OK	확인	в порядке	Okay	ตกลง
Confirm_Cancel	CANCEL	إلغاء	CANCELAR	取消	取消	ANNULER	STORNIEREN	ANNULLA	キャンセル	취소	ОТМЕНА	CANCELAR	ยกเลิก
Play	PLAY	لعب	JOGAR	玩	玩	JOUER	ABSPIELEN	GIOCARE	演奏する	플레이	ИГРАТЬ	TOCAR	เล่น
Language	LANGUAGE	لغة	LÍNGUA	语言	語言	LANGUE	SPRACHE	LINGUAGGIO	言語	언어	ЯЗЫК	IDIOMA	ภาษา
RateUs_Review	Please take a moment to leave us a review. Good reviews help us provide you with better content!	يرجى ان نتوقف لحظة لترك لنا الاستعراض. مراجعات جيدة تساعدنا على توفير لكم مع أفضل محتوى!	Por favor, tome um momento para nos deixar um comentário. Boas críticas nos ajudar a fornecer-lhe com o conteúdo melhor!	请花一点时间给我们留下的评论。良好的评价将帮助我们为您提供更好的内容！	請花一點時間給我們留下的評論。良好的評價將幫助我們為您提供更好的內容！	S'il vous plaît prendre un moment pour nous laisser un commentaire. De bons commentaires nous aident à vous fournir un contenu mieux!	Nehmen Sie sich einen Moment, um uns einen Kommentar zu hinterlassen. Gute Bewertungen helfen uns Ihnen bessere Inhalte!	Si prega di prendere un momento per lasciarci un commento. Buone recensioni ci aiutano a fornire con contenuti di meglio!	私たちのレビューを残すために時間を割いてください。良いレビューは、私たちはより良いコンテンツをご提供するのに役立ちます！	우리에게 리뷰를 떠나 잠시 시간을내어 주시기 바랍니다. 좋은 리뷰는 우리가 더 나은 콘텐츠를 제공 할 수 있도록!	Пожалуйста, найдите минутку, чтобы оставить нам отзыв. Хорошие отзывы помогают нам предоставить вам лучший контент!	Por favor tome un momento para dejar un comentario. Buenas críticas nos ayudan a ofrecerle un mejor contenido!	โปรดใช้เวลาสักครู่เพื่อปล่อยให้เรารีวิว ความคิดเห็นที่ดีช่วยให้เราช่วยให้คุณมีเนื้อหาที่ดีกว่า!
RateUs_Enjoying	Have you been enjoying [0]?	هل سبق لك أن تتمتع [0]؟	você tem sido desfrutando de [0]?	你一直在享受[0]？	你一直在享受[0]？	Avez-vous été en appréciant [0]?	Sind Sie schon genießen [0]?	Sei stato godendo [0]?	あなたは[0]を楽しんでされていますか？	당신은 즐기고있다 [0]?	Были ли вы наслаждаться [0]?	Ha estado disfrutando [0]?	คุณได้รับการเพลิดเพลินกับ [0]?
RateUs_Later	LATER	في وقت لاحق	MAIS TARDE	后来	後來	PLUS TARD	SPÄTER	DOPO	LATER	나중	ПОЗЖЕ	LUEGO	LATER
RateUs_Rate	RATE	معدل	TAXA	率	率	TAUX	BEWERTUNG	VOTA	割合	율	ТЕМП	VELOCIDAD	ประเมินค่า
Current_Language_Name	ENGLISH	العربية	PORTUGUÊS BRASILEIRO	简化字	繁體中文	FRANÇAIS	DEUTSCHE	ITALIANO	日本語	한국어	РОССИЯ	ESPAÑOL	ภาษาไทย
Restore_Purchases	RESTORE PURCHASES	استعادة المشتريات	RESTAURAR COMPRAS	恢复购买	恢復購買	RESTORE ACQUISITIONS	RESTORE KÄUFE	RIPRISTINARE GLI ACQUISTI	購入を復元	구매를 복원	ВОССТАНОВИТЬ ПОКУПКИ	RESTAURAR LAS COMPRAS	เรียกคืนการซื้อสินค้า
Haptics	HAPTICS	اللمس	haptics	触觉	觸覺	HAPTIQUE	HAPTIK	Haptics	ハプティクス	촉각	учение о тактильной чувствительности	háptica	haptics
Privacy_Policy	hero	بطل	herói	英雄	英雄	héros	Held	eroe	勇者	영웅	герой	héroe	พระเอก
Terms_Of_Service	TERMS OF SERVICE	شروط الخدمة	TERMOS DE SERVIÇO	服务条款	服務條款	CONDITIONS D'UTILISATION	NUTZUNGSBEDINGUNGEN	TERMINI DI SERVIZIO	利用規約	서비스 약관	УСЛОВИЯ ОБСЛУЖИВАНИЯ	TÉRMINOS DE SERVICIO	เงื่อนไขการให้บริการ
Credits	Credits	قروض	créditos	积分	積分	Crédits	Credits	Crediti	クレジット	크레딧	кредиты	créditos	เครดิต